{
  "ambientDependencies": {
    "jquery": "github:DefinitelyTyped/DefinitelyTyped/jquery/jquery.d.ts#470954c4f427e0805a2d633636a7c6aa7170def8",
    "react": "github:DefinitelyTyped/DefinitelyTyped/react/react.d.ts#744a89c4b12aa6537bcc39e7581d291dc74a4c3a"
  }
}
